{
  "app": {
    "port": "3000",
    "host": "127.0.0.1",
    "captcha": true,
    "salt": "__Silenceisgold267524534652123741",
    "timeout": 1800
  },
  "sequelize": {
    "logging": "console.log",
    "database": "tongtang_online",
    "username": "root",
    "password": "172.27.35.168",
    "options": {
      "host": "127.0.0.1",
      "dialect": "mysql",
      "port": "3306",
      "dialectOptions": {
        "supportBigNumbers": true,
        "bigNumberStrings": true
      },
      "pool": {
        "max": 500,
        "min": 0,
        "idle": 10000
      }
    },
    "timezone": "+08:00"
  },
  "database" : {
    "redis": {
      "host": "127.0.0.1",
      "password": "fddcf56a58e5e456",
      "port": 6379
    }
  }
}